<?xml version="1.0" standalone="no"?>
<svg version="1.0" xmlns="http://www.w3.org/2000/svg" viewBox="0 0 48 48">
<g stroke="red" stroke-width="5">
<path d="M0 0 L48 48"/>
<path d="M0 48 L48 0"/>
</g>
</svg>
